%YAML 1.1
%TAG !u! tag:unity3d.com,2011:
--- !u!114 &11400000
MonoBehaviour:
  m_ObjectHideFlags: 0
  m_CorrespondingSourceObject: {fileID: 0}
  m_PrefabInstance: {fileID: 0}
  m_PrefabAsset: {fileID: 0}
  m_GameObject: {fileID: 0}
  m_Enabled: 1
  m_EditorHideFlags: 0
  m_Script: {fileID: 11500000, guid: 0c2ceb4b8a8179a4fa28d57103a446ff, type: 3}
  m_Name: MaxForce
  m_EditorClassIdentifier: 
  manager: {fileID: 11400000, guid: 760c9c55b53d45144ade4c5d9b8b96bb, type: 2}
  attributes:
    health: 0
    attack: 0
    defense: 10
    dextery: 0
    cooldown: 0
