%YAML 1.1
%TAG !u! tag:unity3d.com,2011:
--- !u!136 &5425090565741939396
CapsuleCollider:
  m_ObjectHideFlags: 0
  m_CorrespondingSourceObject: {fileID: 0}
  m_PrefabInstance: {fileID: 0}
  m_PrefabAsset: {fileID: 0}
  m_GameObject: {fileID: 2957064470174274563}
  m_Material: {fileID: 0}
  m_IsTrigger: 0
  m_Enabled: 1
  m_Radius: 0.5
  m_Height: 2
  m_Direction: 1
  m_Center: {x: 0, y: 0.88, z: 0}
--- !u!114 &-7354067919131148797
MonoBehaviour:
  m_ObjectHideFlags: 0
  m_CorrespondingSourceObject: {fileID: 0}
  m_PrefabInstance: {fileID: 0}
  m_PrefabAsset: {fileID: 0}
  m_GameObject: {fileID: 2957064470174274563}
  m_Enabled: 1
  m_EditorHideFlags: 0
  m_Script: {fileID: 11500000, guid: 5430f183c0f187741912d565c2756d2b, type: 3}
  m_Name: 
  m_EditorClassIdentifier: 
  attributes:
    health: 0
    attack: 0
    defense: 0
    dextery: 0
    cooldown: 0
  model: {fileID: 11400000, guid: 304c2017652c474489dbf238765e18ef, type: 2}
  animator: {fileID: 8404392073354482883}
  agent: {fileID: -131390548765685464}
--- !u!195 &-131390548765685464
NavMeshAgent:
  m_ObjectHideFlags: 0
  m_CorrespondingSourceObject: {fileID: 0}
  m_PrefabInstance: {fileID: 0}
  m_PrefabAsset: {fileID: 0}
  m_GameObject: {fileID: 2957064470174274563}
  m_Enabled: 1
  m_AgentTypeID: 0
  m_Radius: 0.5
  m_Speed: 1
  m_Acceleration: 8
  avoidancePriority: 50
  m_AngularSpeed: 120
  m_StoppingDistance: 0
  m_AutoTraverseOffMeshLink: 1
  m_AutoBraking: 1
  m_AutoRepath: 1
  m_Height: 2
  m_BaseOffset: 0
  m_WalkableMask: 4294967295
  m_ObstacleAvoidanceType: 4
--- !u!1001 &2722693869281454418
PrefabInstance:
  m_ObjectHideFlags: 0
  serializedVersion: 2
  m_Modification:
    m_TransformParent: {fileID: 0}
    m_Modifications:
    - target: {fileID: -8968559241094960278, guid: e885904f837b0244ba9d43409e3ac716, type: 3}
      propertyPath: m_Layer
      value: 7
      objectReference: {fileID: 0}
    - target: {fileID: -8778109796107686571, guid: e885904f837b0244ba9d43409e3ac716, type: 3}
      propertyPath: m_Layer
      value: 7
      objectReference: {fileID: 0}
    - target: {fileID: -8679921383154817045, guid: e885904f837b0244ba9d43409e3ac716, type: 3}
      propertyPath: m_RootOrder
      value: 0
      objectReference: {fileID: 0}
    - target: {fileID: -8679921383154817045, guid: e885904f837b0244ba9d43409e3ac716, type: 3}
      propertyPath: m_LocalPosition.x
      value: 0
      objectReference: {fileID: 0}
    - target: {fileID: -8679921383154817045, guid: e885904f837b0244ba9d43409e3ac716, type: 3}
      propertyPath: m_LocalPosition.y
      value: 0
      objectReference: {fileID: 0}
    - target: {fileID: -8679921383154817045, guid: e885904f837b0244ba9d43409e3ac716, type: 3}
      propertyPath: m_LocalPosition.z
      value: 0
      objectReference: {fileID: 0}
    - target: {fileID: -8679921383154817045, guid: e885904f837b0244ba9d43409e3ac716, type: 3}
      propertyPath: m_LocalRotation.w
      value: 1
      objectReference: {fileID: 0}
    - target: {fileID: -8679921383154817045, guid: e885904f837b0244ba9d43409e3ac716, type: 3}
      propertyPath: m_LocalRotation.x
      value: 0
      objectReference: {fileID: 0}
    - target: {fileID: -8679921383154817045, guid: e885904f837b0244ba9d43409e3ac716, type: 3}
      propertyPath: m_LocalRotation.y
      value: 0
      objectReference: {fileID: 0}
    - target: {fileID: -8679921383154817045, guid: e885904f837b0244ba9d43409e3ac716, type: 3}
      propertyPath: m_LocalRotation.z
      value: 0
      objectReference: {fileID: 0}
    - target: {fileID: -8679921383154817045, guid: e885904f837b0244ba9d43409e3ac716, type: 3}
      propertyPath: m_LocalEulerAnglesHint.x
      value: 0
      objectReference: {fileID: 0}
    - target: {fileID: -8679921383154817045, guid: e885904f837b0244ba9d43409e3ac716, type: 3}
      propertyPath: m_LocalEulerAnglesHint.y
      value: 0
      objectReference: {fileID: 0}
    - target: {fileID: -8679921383154817045, guid: e885904f837b0244ba9d43409e3ac716, type: 3}
      propertyPath: m_LocalEulerAnglesHint.z
      value: 0
      objectReference: {fileID: 0}
    - target: {fileID: -8572082666327003583, guid: e885904f837b0244ba9d43409e3ac716, type: 3}
      propertyPath: m_Layer
      value: 7
      objectReference: {fileID: 0}
    - target: {fileID: -8306332999805644961, guid: e885904f837b0244ba9d43409e3ac716, type: 3}
      propertyPath: m_Layer
      value: 7
      objectReference: {fileID: 0}
    - target: {fileID: -8230760882961160704, guid: e885904f837b0244ba9d43409e3ac716, type: 3}
      propertyPath: m_Layer
      value: 7
      objectReference: {fileID: 0}
    - target: {fileID: -8135518263987351134, guid: e885904f837b0244ba9d43409e3ac716, type: 3}
      propertyPath: m_Layer
      value: 7
      objectReference: {fileID: 0}
    - target: {fileID: -7920178587172233110, guid: e885904f837b0244ba9d43409e3ac716, type: 3}
      propertyPath: m_Layer
      value: 7
      objectReference: {fileID: 0}
    - target: {fileID: -7883749328917080035, guid: e885904f837b0244ba9d43409e3ac716, type: 3}
      propertyPath: m_Layer
      value: 7
      objectReference: {fileID: 0}
    - target: {fileID: -7815209654676278400, guid: e885904f837b0244ba9d43409e3ac716, type: 3}
      propertyPath: m_Layer
      value: 7
      objectReference: {fileID: 0}
    - target: {fileID: -7784264328553222986, guid: e885904f837b0244ba9d43409e3ac716, type: 3}
      propertyPath: m_Layer
      value: 7
      objectReference: {fileID: 0}
    - target: {fileID: -7469026412346215495, guid: e885904f837b0244ba9d43409e3ac716, type: 3}
      propertyPath: m_Layer
      value: 7
      objectReference: {fileID: 0}
    - target: {fileID: -7312981136808073517, guid: e885904f837b0244ba9d43409e3ac716, type: 3}
      propertyPath: m_Layer
      value: 7
      objectReference: {fileID: 0}
    - target: {fileID: -6539415035297710659, guid: e885904f837b0244ba9d43409e3ac716, type: 3}
      propertyPath: m_Layer
      value: 7
      objectReference: {fileID: 0}
    - target: {fileID: -5839152227493682472, guid: e885904f837b0244ba9d43409e3ac716, type: 3}
      propertyPath: m_Layer
      value: 7
      objectReference: {fileID: 0}
    - target: {fileID: -5694567166147809188, guid: e885904f837b0244ba9d43409e3ac716, type: 3}
      propertyPath: m_Layer
      value: 7
      objectReference: {fileID: 0}
    - target: {fileID: -5475163840721910313, guid: e885904f837b0244ba9d43409e3ac716, type: 3}
      propertyPath: m_Layer
      value: 7
      objectReference: {fileID: 0}
    - target: {fileID: -5343121461258200508, guid: e885904f837b0244ba9d43409e3ac716, type: 3}
      propertyPath: m_Layer
      value: 7
      objectReference: {fileID: 0}
    - target: {fileID: -5080165188405679376, guid: e885904f837b0244ba9d43409e3ac716, type: 3}
      propertyPath: m_Layer
      value: 7
      objectReference: {fileID: 0}
    - target: {fileID: -4799876848884336152, guid: e885904f837b0244ba9d43409e3ac716, type: 3}
      propertyPath: m_Layer
      value: 7
      objectReference: {fileID: 0}
    - target: {fileID: -4710464142338994661, guid: e885904f837b0244ba9d43409e3ac716, type: 3}
      propertyPath: m_Layer
      value: 7
      objectReference: {fileID: 0}
    - target: {fileID: -4519412183027553179, guid: e885904f837b0244ba9d43409e3ac716, type: 3}
      propertyPath: m_Layer
      value: 7
      objectReference: {fileID: 0}
    - target: {fileID: -4356861419947955270, guid: e885904f837b0244ba9d43409e3ac716, type: 3}
      propertyPath: m_Layer
      value: 7
      objectReference: {fileID: 0}
    - target: {fileID: -4341457848597693527, guid: e885904f837b0244ba9d43409e3ac716, type: 3}
      propertyPath: m_Layer
      value: 7
      objectReference: {fileID: 0}
    - target: {fileID: -3803930360621070614, guid: e885904f837b0244ba9d43409e3ac716, type: 3}
      propertyPath: m_Layer
      value: 7
      objectReference: {fileID: 0}
    - target: {fileID: -3314475396636589487, guid: e885904f837b0244ba9d43409e3ac716, type: 3}
      propertyPath: m_Layer
      value: 7
      objectReference: {fileID: 0}
    - target: {fileID: -3168368727830410910, guid: e885904f837b0244ba9d43409e3ac716, type: 3}
      propertyPath: m_Layer
      value: 7
      objectReference: {fileID: 0}
    - target: {fileID: -3005590043750053460, guid: e885904f837b0244ba9d43409e3ac716, type: 3}
      propertyPath: m_Layer
      value: 7
      objectReference: {fileID: 0}
    - target: {fileID: -2564405384823456966, guid: e885904f837b0244ba9d43409e3ac716, type: 3}
      propertyPath: m_Layer
      value: 7
      objectReference: {fileID: 0}
    - target: {fileID: -2437844995678806864, guid: e885904f837b0244ba9d43409e3ac716, type: 3}
      propertyPath: m_Layer
      value: 7
      objectReference: {fileID: 0}
    - target: {fileID: -2327714050766827146, guid: e885904f837b0244ba9d43409e3ac716, type: 3}
      propertyPath: m_Layer
      value: 7
      objectReference: {fileID: 0}
    - target: {fileID: -2123234437176646832, guid: e885904f837b0244ba9d43409e3ac716, type: 3}
      propertyPath: m_Layer
      value: 7
      objectReference: {fileID: 0}
    - target: {fileID: -1304988944617862642, guid: e885904f837b0244ba9d43409e3ac716, type: 3}
      propertyPath: m_Layer
      value: 7
      objectReference: {fileID: 0}
    - target: {fileID: -1136596035227872138, guid: e885904f837b0244ba9d43409e3ac716, type: 3}
      propertyPath: m_Layer
      value: 7
      objectReference: {fileID: 0}
    - target: {fileID: -923635780827437604, guid: e885904f837b0244ba9d43409e3ac716, type: 3}
      propertyPath: m_Layer
      value: 7
      objectReference: {fileID: 0}
    - target: {fileID: -649365422237708934, guid: e885904f837b0244ba9d43409e3ac716, type: 3}
      propertyPath: m_Layer
      value: 7
      objectReference: {fileID: 0}
    - target: {fileID: -417878991522404143, guid: e885904f837b0244ba9d43409e3ac716, type: 3}
      propertyPath: m_Layer
      value: 7
      objectReference: {fileID: 0}
    - target: {fileID: 114629117969417470, guid: e885904f837b0244ba9d43409e3ac716, type: 3}
      propertyPath: m_Layer
      value: 7
      objectReference: {fileID: 0}
    - target: {fileID: 191436525908301663, guid: e885904f837b0244ba9d43409e3ac716, type: 3}
      propertyPath: m_Layer
      value: 7
      objectReference: {fileID: 0}
    - target: {fileID: 455256945981099688, guid: e885904f837b0244ba9d43409e3ac716, type: 3}
      propertyPath: m_Layer
      value: 7
      objectReference: {fileID: 0}
    - target: {fileID: 509271377622172797, guid: e885904f837b0244ba9d43409e3ac716, type: 3}
      propertyPath: m_Layer
      value: 7
      objectReference: {fileID: 0}
    - target: {fileID: 820613552023445859, guid: e885904f837b0244ba9d43409e3ac716, type: 3}
      propertyPath: m_Layer
      value: 7
      objectReference: {fileID: 0}
    - target: {fileID: 919132149155446097, guid: e885904f837b0244ba9d43409e3ac716, type: 3}
      propertyPath: m_Name
      value: Zombie
      objectReference: {fileID: 0}
    - target: {fileID: 919132149155446097, guid: e885904f837b0244ba9d43409e3ac716, type: 3}
      propertyPath: m_Layer
      value: 7
      objectReference: {fileID: 0}
    - target: {fileID: 919132149155446097, guid: e885904f837b0244ba9d43409e3ac716, type: 3}
      propertyPath: m_TagString
      value: Enemy
      objectReference: {fileID: 0}
    - target: {fileID: 1052969676160240803, guid: e885904f837b0244ba9d43409e3ac716, type: 3}
      propertyPath: m_Layer
      value: 7
      objectReference: {fileID: 0}
    - target: {fileID: 1645898859189091904, guid: e885904f837b0244ba9d43409e3ac716, type: 3}
      propertyPath: m_Layer
      value: 7
      objectReference: {fileID: 0}
    - target: {fileID: 1744750616966482714, guid: e885904f837b0244ba9d43409e3ac716, type: 3}
      propertyPath: m_Layer
      value: 7
      objectReference: {fileID: 0}
    - target: {fileID: 2078552528192164082, guid: e885904f837b0244ba9d43409e3ac716, type: 3}
      propertyPath: m_Layer
      value: 7
      objectReference: {fileID: 0}
    - target: {fileID: 2190232185864092293, guid: e885904f837b0244ba9d43409e3ac716, type: 3}
      propertyPath: m_Layer
      value: 7
      objectReference: {fileID: 0}
    - target: {fileID: 2259869186471512676, guid: e885904f837b0244ba9d43409e3ac716, type: 3}
      propertyPath: m_Layer
      value: 7
      objectReference: {fileID: 0}
    - target: {fileID: 2617163248172626089, guid: e885904f837b0244ba9d43409e3ac716, type: 3}
      propertyPath: m_Layer
      value: 7
      objectReference: {fileID: 0}
    - target: {fileID: 2855864113282105254, guid: e885904f837b0244ba9d43409e3ac716, type: 3}
      propertyPath: m_Layer
      value: 7
      objectReference: {fileID: 0}
    - target: {fileID: 3353480103410286288, guid: e885904f837b0244ba9d43409e3ac716, type: 3}
      propertyPath: m_Layer
      value: 7
      objectReference: {fileID: 0}
    - target: {fileID: 3728325307404386522, guid: e885904f837b0244ba9d43409e3ac716, type: 3}
      propertyPath: m_Layer
      value: 7
      objectReference: {fileID: 0}
    - target: {fileID: 4407206784912244035, guid: e885904f837b0244ba9d43409e3ac716, type: 3}
      propertyPath: m_Layer
      value: 7
      objectReference: {fileID: 0}
    - target: {fileID: 4425336666963535307, guid: e885904f837b0244ba9d43409e3ac716, type: 3}
      propertyPath: m_Layer
      value: 7
      objectReference: {fileID: 0}
    - target: {fileID: 5269413673403367466, guid: e885904f837b0244ba9d43409e3ac716, type: 3}
      propertyPath: m_Layer
      value: 7
      objectReference: {fileID: 0}
    - target: {fileID: 5692292108060305354, guid: e885904f837b0244ba9d43409e3ac716, type: 3}
      propertyPath: m_Layer
      value: 7
      objectReference: {fileID: 0}
    - target: {fileID: 5866666021909216657, guid: e885904f837b0244ba9d43409e3ac716, type: 3}
      propertyPath: m_Controller
      value: 
      objectReference: {fileID: 9100000, guid: a6cc171be072f1d47aad6b3e2fc69bfc, type: 2}
    - target: {fileID: 6038414690906536434, guid: e885904f837b0244ba9d43409e3ac716, type: 3}
      propertyPath: m_Layer
      value: 7
      objectReference: {fileID: 0}
    - target: {fileID: 6432120630473699371, guid: e885904f837b0244ba9d43409e3ac716, type: 3}
      propertyPath: m_Layer
      value: 7
      objectReference: {fileID: 0}
    - target: {fileID: 6824710841311164530, guid: e885904f837b0244ba9d43409e3ac716, type: 3}
      propertyPath: m_Layer
      value: 7
      objectReference: {fileID: 0}
    - target: {fileID: 6826277607695689199, guid: e885904f837b0244ba9d43409e3ac716, type: 3}
      propertyPath: m_Layer
      value: 7
      objectReference: {fileID: 0}
    - target: {fileID: 6907093252812669436, guid: e885904f837b0244ba9d43409e3ac716, type: 3}
      propertyPath: m_Layer
      value: 7
      objectReference: {fileID: 0}
    - target: {fileID: 7559886290812355572, guid: e885904f837b0244ba9d43409e3ac716, type: 3}
      propertyPath: m_Layer
      value: 7
      objectReference: {fileID: 0}
    - target: {fileID: 7601307811760825923, guid: e885904f837b0244ba9d43409e3ac716, type: 3}
      propertyPath: m_Layer
      value: 7
      objectReference: {fileID: 0}
    - target: {fileID: 7622238157878344006, guid: e885904f837b0244ba9d43409e3ac716, type: 3}
      propertyPath: m_Layer
      value: 7
      objectReference: {fileID: 0}
    - target: {fileID: 7878621977882622610, guid: e885904f837b0244ba9d43409e3ac716, type: 3}
      propertyPath: m_Layer
      value: 7
      objectReference: {fileID: 0}
    - target: {fileID: 8273956300578523486, guid: e885904f837b0244ba9d43409e3ac716, type: 3}
      propertyPath: m_Layer
      value: 7
      objectReference: {fileID: 0}
    - target: {fileID: 8882082352912030767, guid: e885904f837b0244ba9d43409e3ac716, type: 3}
      propertyPath: m_Layer
      value: 7
      objectReference: {fileID: 0}
    m_RemovedComponents: []
  m_SourcePrefab: {fileID: 100100000, guid: e885904f837b0244ba9d43409e3ac716, type: 3}
--- !u!1 &2957064470174274563 stripped
GameObject:
  m_CorrespondingSourceObject: {fileID: 919132149155446097, guid: e885904f837b0244ba9d43409e3ac716, type: 3}
  m_PrefabInstance: {fileID: 2722693869281454418}
  m_PrefabAsset: {fileID: 0}
--- !u!95 &8404392073354482883 stripped
Animator:
  m_CorrespondingSourceObject: {fileID: 5866666021909216657, guid: e885904f837b0244ba9d43409e3ac716, type: 3}
  m_PrefabInstance: {fileID: 2722693869281454418}
  m_PrefabAsset: {fileID: 0}
